dump.vcd
$date
	Mon Jul 18 21:23:03 2022
$end
$version
	Icarus Verilog
$end
$timescale
	1ps
$end
$scope module test_Hex_Keypad $end
$var wire 1 ! Valid $end
$var wire 1 " S_Row $end
$var wire 4 # Row [3:0] $end
$var wire 4 $ Col [3:0] $end
$var wire 4 % Code [3:0] $end
$var reg 16 & Key [15:0] $end
$var reg 40 ' Pressed [39:0] $end
$var reg 1 ( clock $end
$var reg 1 ) reset $end
$var integer 32 * j [31:0] $end
$var integer 32 + k [31:0] $end
$scope module M1 $end
$var wire 1 ! Valid $end
$var wire 1 ( clock $end
$var wire 1 ) reset $end
$var wire 1 " S_Row $end
$var wire 4 , Row [3:0] $end
$var reg 4 - Code [3:0] $end
$var reg 4 . Col [3:0] $end
$var reg 6 / next_state [5:0] $end
$var reg 6 0 state [5:0] $end
$upscope $end
$scope module M2 $end
$var wire 4 1 Col [3:0] $end
$var wire 16 2 Key [15:0] $end
$var reg 4 3 Row [3:0] $end
$upscope $end
$scope module M3 $end
$var wire 4 4 Row [3:0] $end
$var wire 1 ( clock $end
$var wire 1 ) reset $end
$var reg 1 5 A_Row $end
$var reg 1 " S_Row $end
$upscope $end
$upscope $end
$enddefinitions $end
#0
$dumpvars
05
b0 4
b0 3
b0 2
b1111 1
b1 0
b1 /
b1111 .
b0 -
b0 ,
b0 +
bx *
1)
0(
b1001110011011110110111001100101 '
b0 &
b0 %
b1111 $
b0 #
0"
0!
$end
#5000
1(
#10000
0(
0)
#15000
1(
#20000
0(
b0 *
#25000
1(
#30000
0(
#35000
1(
#40000
15
b1111 $
b1111 .
b1111 1
b1 #
b1 ,
b1 3
b1 4
b100101101100101011110010101111100110000 '
0(
b1 &
b1 2
#45000
1(
#50000
b10 /
b1111 $
b1111 .
b1111 1
1"
0(
#55000
1!
b100000 /
b1 $
b1 .
b1 1
b10 0
1(
#60000
0(
#65000
0!
b1111 $
b1111 .
b1111 1
b100000 0
1(
#70000
0(
#75000
1(
#80000
0(
#85000
1(
#90000
0(
#95000
1(
#100000
05
b1 /
b1111 $
b1111 .
b1111 1
b0 #
b0 ,
b0 3
b0 4
b1001110011011110110111001100101 '
0(
b1 *
b0 &
b0 2
#105000
b10 /
b1111 $
b1111 .
b1111 1
b1 0
1(
#110000
b1111 $
b1111 .
b1111 1
b1 /
0"
0(
#115000
1(
#120000
15
b1111 $
b1111 .
b1111 1
b1 #
b1 ,
b1 3
b1 4
b100101101100101011110010101111100110001 '
0(
b10 &
b10 2
#125000
1(
#130000
b10 /
b1111 $
b1111 .
b1111 1
1"
0(
#135000
b0 #
b0 ,
b0 3
b0 4
b100 /
b1 $
b1 .
b1 1
b10 0
1(
#140000
05
0(
#145000
1!
b1 %
b1 -
b1 #
b1 ,
b1 3
b1 4
b100000 /
b10 $
b10 .
b10 1
b100 0
1(
#150000
b10 $
b10 .
b10 1
b100000 /
0"
15
0(
#155000
0!
b0 %
b0 -
b1111 $
b1111 .
b1111 1
b100000 0
1(
#160000
b1111 $
b1111 .
b1111 1
1"
0(
#165000
1(
#170000
0(
#175000
1(
#180000
05
b1 /
b1111 $
b1111 .
b1111 1
b0 #
b0 ,
b0 3
b0 4
b1001110011011110110111001100101 '
0(
b10 *
b0 &
b0 2
#185000
b10 /
b1111 $
b1111 .
b1111 1
b1 0
1(
#190000
b1111 $
b1111 .
b1111 1
b1 /
0"
0(
#195000
1(
#200000
15
b1111 $
b1111 .
b1111 1
b1 #
b1 ,
b1 3
b1 4
b100101101100101011110010101111100110010 '
0(
b100 &
b100 2
#205000
1(
#210000
b10 /
b1111 $
b1111 .
b1111 1
1"
0(
#215000
b0 #
b0 ,
b0 3
b0 4
b100 /
b1 $
b1 .
b1 1
b10 0
1(
#220000
05
0(
#225000
b1000 /
b10 $
b10 .
b10 1
b100 0
1(
#230000
b10 $
b10 .
b10 1
b1000 /
0"
0(
#235000
1!
b10 %
b10 -
b1 #
b1 ,
b1 3
b1 4
b100000 /
b100 $
b100 .
b100 1
b1000 0
1(
#240000
15
0(
#245000
0!
b0 %
b0 -
b1111 $
b1111 .
b1111 1
b100000 0
1(
#250000
b1111 $
b1111 .
b1111 1
1"
0(
#255000
1(
#260000
05
b1 /
b1111 $
b1111 .
b1111 1
b0 #
b0 ,
b0 3
b0 4
b1001110011011110110111001100101 '
0(
b11 *
b0 &
b0 2
#265000
b10 /
b1111 $
b1111 .
b1111 1
b1 0
1(
#270000
b1111 $
b1111 .
b1111 1
b1 /
0"
0(
#275000
1(
#280000
15
b1111 $
b1111 .
b1111 1
b1 #
b1 ,
b1 3
b1 4
b100101101100101011110010101111100110011 '
0(
b1000 &
b1000 2
#285000
1(
#290000
b10 /
b1111 $
b1111 .
b1111 1
1"
0(
#295000
b0 #
b0 ,
b0 3
b0 4
b100 /
b1 $
b1 .
b1 1
b10 0
1(
#300000
05
0(
#305000
b1000 /
b10 $
b10 .
b10 1
b100 0
1(
#310000
b10 $
b10 .
b10 1
b1000 /
0"
0(
#315000
b10000 /
b100 $
b100 .
b100 1
b1000 0
1(
#320000
0(
#325000
1!
b11 %
b11 -
b1 #
b1 ,
b1 3
b1 4
b100000 /
b1000 $
b1000 .
b1000 1
b10000 0
1(
#330000
15
0(
#335000
b0 %
b0 -
0!
b1111 $
b1111 .
b1111 1
b100000 0
1(
#340000
1"
05
b1 /
b1111 $
b1111 .
b1111 1
b0 #
b0 ,
b0 3
b0 4
b1001110011011110110111001100101 '
0(
b100 *
b0 &
b0 2
#345000
b10 /
b1111 $
b1111 .
b1111 1
b1 0
1(
#350000
b1111 $
b1111 .
b1111 1
b1 /
0"
0(
#355000
1(
#360000
15
b1111 $
b1111 .
b1111 1
b10 #
b10 ,
b10 3
b10 4
b100101101100101011110010101111100110100 '
0(
b10000 &
b10000 2
#365000
1(
#370000
b10 /
b1111 $
b1111 .
b1111 1
1"
0(
#375000
1!
b100 %
b100 -
b100000 /
b1 $
b1 .
b1 1
b10 0
1(
#380000
0(
#385000
0!
b0 %
b0 -
b1111 $
b1111 .
b1111 1
b100000 0
1(
#390000
0(
#395000
1(
#400000
0(
#405000
1(
#410000
0(
#415000
1(
#420000
05
b1 /
b1111 $
b1111 .
b1111 1
b0 #
b0 ,
b0 3
b0 4
b1001110011011110110111001100101 '
0(
b101 *
b0 &
b0 2
#425000
b10 /
b1111 $
b1111 .
b1111 1
b1 0
1(
#430000
b1111 $
b1111 .
b1111 1
b1 /
0"
0(
#435000
1(
#440000
15
b1111 $
b1111 .
b1111 1
b10 #
b10 ,
b10 3
b10 4
b100101101100101011110010101111100110101 '
0(
b100000 &
b100000 2
#445000
1(
#450000
b10 /
b1111 $
b1111 .
b1111 1
1"
0(
#455000
b0 #
b0 ,
b0 3
b0 4
b100 /
b1 $
b1 .
b1 1
b10 0
1(
#460000
05
0(
#465000
1!
b101 %
b101 -
b10 #
b10 ,
b10 3
b10 4
b100000 /
b10 $
b10 .
b10 1
b100 0
1(
#470000
b10 $
b10 .
b10 1
b100000 /
0"
15
0(
#475000
0!
b0 %
b0 -
b1111 $
b1111 .
b1111 1
b100000 0
1(
#480000
b1111 $
b1111 .
b1111 1
1"
0(
#485000
1(
#490000
0(
#495000
1(
#500000
05
b1 /
b1111 $
b1111 .
b1111 1
b0 #
b0 ,
b0 3
b0 4
b1001110011011110110111001100101 '
0(
b110 *
b0 &
b0 2
#505000
b10 /
b1111 $
b1111 .
b1111 1
b1 0
1(
#510000
b1111 $
b1111 .
b1111 1
b1 /
0"
0(
#515000
1(
#520000
15
b1111 $
b1111 .
b1111 1
b10 #
b10 ,
b10 3
b10 4
b100101101100101011110010101111100110110 '
0(
b1000000 &
b1000000 2
#525000
1(
#530000
b10 /
b1111 $
b1111 .
b1111 1
1"
0(
#535000
b0 #
b0 ,
b0 3
b0 4
b100 /
b1 $
b1 .
b1 1
b10 0
1(
#540000
05
0(
#545000
b1000 /
b10 $
b10 .
b10 1
b100 0
1(
#550000
b10 $
b10 .
b10 1
b1000 /
0"
0(
#555000
1!
b110 %
b110 -
b10 #
b10 ,
b10 3
b10 4
b100000 /
b100 $
b100 .
b100 1
b1000 0
1(
#560000
15
0(
#565000
0!
b0 %
b0 -
b1111 $
b1111 .
b1111 1
b100000 0
1(
#570000
b1111 $
b1111 .
b1111 1
1"
0(
#575000
1(
#580000
05
b1 /
b1111 $
b1111 .
b1111 1
b0 #
b0 ,
b0 3
b0 4
b1001110011011110110111001100101 '
0(
b111 *
b0 &
b0 2
#585000
b10 /
b1111 $
b1111 .
b1111 1
b1 0
1(
#590000
b1111 $
b1111 .
b1111 1
b1 /
0"
0(
#595000
1(
#600000
15
b1111 $
b1111 .
b1111 1
b10 #
b10 ,
b10 3
b10 4
b100101101100101011110010101111100110111 '
0(
b10000000 &
b10000000 2
#605000
1(
#610000
b10 /
b1111 $
b1111 .
b1111 1
1"
0(
#615000
b0 #
b0 ,
b0 3
b0 4
b100 /
b1 $
b1 .
b1 1
b10 0
1(
#620000
05
0(
#625000
b1000 /
b10 $
b10 .
b10 1
b100 0
1(
#630000
b10 $
b10 .
b10 1
b1000 /
0"
0(
#635000
b10000 /
b100 $
b100 .
b100 1
b1000 0
1(
#640000
0(
#645000
1!
b111 %
b111 -
b10 #
b10 ,
b10 3
b10 4
b100000 /
b1000 $
b1000 .
b1000 1
b10000 0
1(
#650000
15
0(
#655000
b0 %
b0 -
0!
b1111 $
b1111 .
b1111 1
b100000 0
1(
#660000
1"
05
b1 /
b1111 $
b1111 .
b1111 1
b0 #
b0 ,
b0 3
b0 4
b1001110011011110110111001100101 '
0(
b1000 *
b0 &
b0 2
#665000
b10 /
b1111 $
b1111 .
b1111 1
b1 0
1(
#670000
b1111 $
b1111 .
b1111 1
b1 /
0"
0(
#675000
1(
#680000
15
b1111 $
b1111 .
b1111 1
b100 #
b100 ,
b100 3
b100 4
b100101101100101011110010101111100111000 '
0(
b100000000 &
b100000000 2
#685000
1(
#690000
b10 /
b1111 $
b1111 .
b1111 1
1"
0(
#695000
1!
b1000 %
b1000 -
b100000 /
b1 $
b1 .
b1 1
b10 0
1(
#700000
0(
#705000
0!
b0 %
b0 -
b1111 $
b1111 .
b1111 1
b100000 0
1(
#710000
0(
#715000
1(
#720000
0(
#725000
1(
#730000
0(
#735000
1(
#740000
05
b1 /
b1111 $
b1111 .
b1111 1
b0 #
b0 ,
b0 3
b0 4
b1001110011011110110111001100101 '
0(
b1001 *
b0 &
b0 2
#745000
b10 /
b1111 $
b1111 .
b1111 1
b1 0
1(
#750000
b1111 $
b1111 .
b1111 1
b1 /
0"
0(
#755000
1(
#760000
15
b1111 $
b1111 .
b1111 1
b100 #
b100 ,
b100 3
b100 4
b100101101100101011110010101111100111001 '
0(
b1000000000 &
b1000000000 2
#765000
1(
#770000
b10 /
b1111 $
b1111 .
b1111 1
1"
0(
#775000
b0 #
b0 ,
b0 3
b0 4
b100 /
b1 $
b1 .
b1 1
b10 0
1(
#780000
05
0(
#785000
1!
b1001 %
b1001 -
b100 #
b100 ,
b100 3
b100 4
b100000 /
b10 $
b10 .
b10 1
b100 0
1(
#790000
b10 $
b10 .
b10 1
b100000 /
0"
15
0(
#795000
0!
b0 %
b0 -
b1111 $
b1111 .
b1111 1
b100000 0
1(
#800000
b1111 $
b1111 .
b1111 1
1"
0(
#805000
1(
#810000
0(
#815000
1(
#820000
05
b1 /
b1111 $
b1111 .
b1111 1
b0 #
b0 ,
b0 3
b0 4
b1001110011011110110111001100101 '
0(
b1010 *
b0 &
b0 2
#825000
b10 /
b1111 $
b1111 .
b1111 1
b1 0
1(
#830000
b1111 $
b1111 .
b1111 1
b1 /
0"
0(
#835000
1(
#840000
15
b1111 $
b1111 .
b1111 1
b100 #
b100 ,
b100 3
b100 4
b100101101100101011110010101111101000001 '
0(
b10000000000 &
b10000000000 2
#845000
1(
#850000
b10 /
b1111 $
b1111 .
b1111 1
1"
0(
#855000
b0 #
b0 ,
b0 3
b0 4
b100 /
b1 $
b1 .
b1 1
b10 0
1(
#860000
05
0(
#865000
b1000 /
b10 $
b10 .
b10 1
b100 0
1(
#870000
b10 $
b10 .
b10 1
b1000 /
0"
0(
#875000
1!
b1010 %
b1010 -
b100 #
b100 ,
b100 3
b100 4
b100000 /
b100 $
b100 .
b100 1
b1000 0
1(
#880000
15
0(
#885000
0!
b0 %
b0 -
b1111 $
b1111 .
b1111 1
b100000 0
1(
#890000
b1111 $
b1111 .
b1111 1
1"
0(
#895000
1(
#900000
05
b1 /
b1111 $
b1111 .
b1111 1
b0 #
b0 ,
b0 3
b0 4
b1001110011011110110111001100101 '
0(
b1011 *
b0 &
b0 2
#905000
b10 /
b1111 $
b1111 .
b1111 1
b1 0
1(
#910000
b1111 $
b1111 .
b1111 1
b1 /
0"
0(
#915000
1(
#920000
15
b1111 $
b1111 .
b1111 1
b100 #
b100 ,
b100 3
b100 4
b100101101100101011110010101111101000010 '
0(
b100000000000 &
b100000000000 2
#925000
1(
#930000
b10 /
b1111 $
b1111 .
b1111 1
1"
0(
#935000
b0 #
b0 ,
b0 3
b0 4
b100 /
b1 $
b1 .
b1 1
b10 0
1(
#940000
05
0(
#945000
b1000 /
b10 $
b10 .
b10 1
b100 0
1(
#950000
b10 $
b10 .
b10 1
b1000 /
0"
0(
#955000
b10000 /
b100 $
b100 .
b100 1
b1000 0
1(
#960000
0(
#965000
1!
b1011 %
b1011 -
b100 #
b100 ,
b100 3
b100 4
b100000 /
b1000 $
b1000 .
b1000 1
b10000 0
1(
#970000
15
0(
#975000
b0 %
b0 -
0!
b1111 $
b1111 .
b1111 1
b100000 0
1(
#980000
1"
05
b1 /
b1111 $
b1111 .
b1111 1
b0 #
b0 ,
b0 3
b0 4
b1001110011011110110111001100101 '
0(
b1100 *
b0 &
b0 2
#985000
b10 /
b1111 $
b1111 .
b1111 1
b1 0
1(
#990000
b1111 $
b1111 .
b1111 1
b1 /
0"
0(
#995000
1(
#1000000
15
b1111 $
b1111 .
b1111 1
b1000 #
b1000 ,
b1000 3
b1000 4
b100101101100101011110010101111101000011 '
0(
b1000000000000 &
b1000000000000 2
#1005000
1(
#1010000
b10 /
b1111 $
b1111 .
b1111 1
1"
0(
#1015000
1!
b1100 %
b1100 -
b100000 /
b1 $
b1 .
b1 1
b10 0
1(
#1020000
0(
#1025000
0!
b0 %
b0 -
b1111 $
b1111 .
b1111 1
b100000 0
1(
#1030000
0(
#1035000
1(
#1040000
0(
#1045000
1(
#1050000
0(
#1055000
1(
#1060000
05
b1 /
b1111 $
b1111 .
b1111 1
b0 #
b0 ,
b0 3
b0 4
b1001110011011110110111001100101 '
0(
b1101 *
b0 &
b0 2
#1065000
b10 /
b1111 $
b1111 .
b1111 1
b1 0
1(
#1070000
b1111 $
b1111 .
b1111 1
b1 /
0"
0(
#1075000
1(
#1080000
15
b1111 $
b1111 .
b1111 1
b1000 #
b1000 ,
b1000 3
b1000 4
b100101101100101011110010101111101000100 '
0(
b10000000000000 &
b10000000000000 2
#1085000
1(
#1090000
b10 /
b1111 $
b1111 .
b1111 1
1"
0(
#1095000
b0 #
b0 ,
b0 3
b0 4
b100 /
b1 $
b1 .
b1 1
b10 0
1(
#1100000
05
0(
#1105000
1!
b1101 %
b1101 -
b1000 #
b1000 ,
b1000 3
b1000 4
b100000 /
b10 $
b10 .
b10 1
b100 0
1(
#1110000
b10 $
b10 .
b10 1
b100000 /
0"
15
0(
#1115000
0!
b0 %
b0 -
b1111 $
b1111 .
b1111 1
b100000 0
1(
#1120000
b1111 $
b1111 .
b1111 1
1"
0(
#1125000
1(
#1130000
0(
#1135000
1(
#1140000
05
b1 /
b1111 $
b1111 .
b1111 1
b0 #
b0 ,
b0 3
b0 4
b1001110011011110110111001100101 '
0(
b1110 *
b0 &
b0 2
#1145000
b10 /
b1111 $
b1111 .
b1111 1
b1 0
1(
#1150000
b1111 $
b1111 .
b1111 1
b1 /
0"
0(
#1155000
1(
#1160000
15
b1111 $
b1111 .
b1111 1
b1000 #
b1000 ,
b1000 3
b1000 4
b100101101100101011110010101111101000101 '
0(
b100000000000000 &
b100000000000000 2
#1165000
1(
#1170000
b10 /
b1111 $
b1111 .
b1111 1
1"
0(
#1175000
b0 #
b0 ,
b0 3
b0 4
b100 /
b1 $
b1 .
b1 1
b10 0
1(
#1180000
05
0(
#1185000
b1000 /
b10 $
b10 .
b10 1
b100 0
1(
#1190000
b10 $
b10 .
b10 1
b1000 /
0"
0(
#1195000
1!
b1110 %
b1110 -
b1000 #
b1000 ,
b1000 3
b1000 4
b100000 /
b100 $
b100 .
b100 1
b1000 0
1(
#1200000
15
0(
#1205000
0!
b0 %
b0 -
b1111 $
b1111 .
b1111 1
b100000 0
1(
#1210000
b1111 $
b1111 .
b1111 1
1"
0(
#1215000
1(
#1220000
05
b1 /
b1111 $
b1111 .
b1111 1
b0 #
b0 ,
b0 3
b0 4
b1001110011011110110111001100101 '
0(
b1111 *
b0 &
b0 2
#1225000
b10 /
b1111 $
b1111 .
b1111 1
b1 0
1(
#1230000
b1111 $
b1111 .
b1111 1
b1 /
0"
0(
#1235000
1(
#1240000
15
b1111 $
b1111 .
b1111 1
b1000 #
b1000 ,
b1000 3
b1000 4
b100101101100101011110010101111101000110 '
0(
b1000000000000000 &
b1000000000000000 2
#1245000
1(
#1250000
b10 /
b1111 $
b1111 .
b1111 1
1"
0(
#1255000
b0 #
b0 ,
b0 3
b0 4
b100 /
b1 $
b1 .
b1 1
b10 0
1(
#1260000
05
0(
#1265000
b1000 /
b10 $
b10 .
b10 1
b100 0
1(
#1270000
b10 $
b10 .
b10 1
b1000 /
0"
0(
#1275000
b10000 /
b100 $
b100 .
b100 1
b1000 0
1(
#1280000
0(
#1285000
1!
b1111 %
b1111 -
b1000 #
b1000 ,
b1000 3
b1000 4
b100000 /
b1000 $
b1000 .
b1000 1
b10000 0
1(
#1290000
15
0(
#1295000
b0 %
b0 -
0!
b1111 $
b1111 .
b1111 1
b100000 0
1(
#1300000
1"
05
b1 /
b1111 $
b1111 .
b1111 1
b0 #
b0 ,
b0 3
b0 4
b1001110011011110110111001100101 '
0(
b10000 *
b0 &
b0 2
#1305000
b10 /
b1111 $
b1111 .
b1111 1
b1 0
1(
#1310000
b1111 $
b1111 .
b1111 1
b1 /
0"
0(
#1315000
1(
#1320000
0(
#1325000
1(
#1330000
0(
#1335000
1(
#1340000
0(
#1345000
1(
#1350000
0(
#1355000
1(
#1360000
0(
#1365000
1(
#1370000
0(
#1375000
1(
#1380000
0(
b1 +
b10001 *
#1385000
1(
#1390000
0(
#1395000
1(
#1400000
0(
b0 *
#1405000
1(
#1410000
0(
#1415000
1(
#1420000
15
b1111 $
b1111 .
b1111 1
b1 #
b1 ,
b1 3
b1 4
b100101101100101011110010101111100110000 '
0(
b1 &
b1 2
#1425000
1(
#1430000
b10 /
b1111 $
b1111 .
b1111 1
1"
0(
#1435000
1!
b100000 /
b1 $
b1 .
b1 1
b10 0
1(
#1440000
0(
#1445000
0!
b1111 $
b1111 .
b1111 1
b100000 0
1(
#1450000
0(
#1455000
1(
#1460000
0(
#1465000
1(
#1470000
0(
#1475000
1(
#1480000
05
b1 /
b1111 $
b1111 .
b1111 1
b0 #
b0 ,
b0 3
b0 4
b1001110011011110110111001100101 '
0(
b1 *
b0 &
b0 2
#1485000
b10 /
b1111 $
b1111 .
b1111 1
b1 0
1(
#1490000
b1111 $
b1111 .
b1111 1
b1 /
0"
0(
#1495000
1(
#1500000
15
b1111 $
b1111 .
b1111 1
b1 #
b1 ,
b1 3
b1 4
b100101101100101011110010101111100110001 '
0(
b10 &
b10 2
#1505000
1(
#1510000
b10 /
b1111 $
b1111 .
b1111 1
1"
0(
#1515000
b0 #
b0 ,
b0 3
b0 4
b100 /
b1 $
b1 .
b1 1
b10 0
1(
#1520000
05
0(
#1525000
1!
b1 %
b1 -
b1 #
b1 ,
b1 3
b1 4
b100000 /
b10 $
b10 .
b10 1
b100 0
1(
#1530000
b10 $
b10 .
b10 1
b100000 /
0"
15
0(
#1535000
0!
b0 %
b0 -
b1111 $
b1111 .
b1111 1
b100000 0
1(
#1540000
b1111 $
b1111 .
b1111 1
1"
0(
#1545000
1(
#1550000
0(
#1555000
1(
#1560000
05
b1 /
b1111 $
b1111 .
b1111 1
b0 #
b0 ,
b0 3
b0 4
b1001110011011110110111001100101 '
0(
b10 *
b0 &
b0 2
#1565000
b10 /
b1111 $
b1111 .
b1111 1
b1 0
1(
#1570000
b1111 $
b1111 .
b1111 1
b1 /
0"
0(
#1575000
1(
#1580000
15
b1111 $
b1111 .
b1111 1
b1 #
b1 ,
b1 3
b1 4
b100101101100101011110010101111100110010 '
0(
b100 &
b100 2
#1585000
1(
#1590000
b10 /
b1111 $
b1111 .
b1111 1
1"
0(
#1595000
b0 #
b0 ,
b0 3
b0 4
b100 /
b1 $
b1 .
b1 1
b10 0
1(
#1600000
05
0(
#1605000
b1000 /
b10 $
b10 .
b10 1
b100 0
1(
#1610000
b10 $
b10 .
b10 1
b1000 /
0"
0(
#1615000
1!
b10 %
b10 -
b1 #
b1 ,
b1 3
b1 4
b100000 /
b100 $
b100 .
b100 1
b1000 0
1(
#1620000
15
0(
#1625000
0!
b0 %
b0 -
b1111 $
b1111 .
b1111 1
b100000 0
1(
#1630000
b1111 $
b1111 .
b1111 1
1"
0(
#1635000
1(
#1640000
05
b1 /
b1111 $
b1111 .
b1111 1
b0 #
b0 ,
b0 3
b0 4
b1001110011011110110111001100101 '
0(
b11 *
b0 &
b0 2
#1645000
b10 /
b1111 $
b1111 .
b1111 1
b1 0
1(
#1650000
b1111 $
b1111 .
b1111 1
b1 /
0"
0(
#1655000
1(
#1660000
15
b1111 $
b1111 .
b1111 1
b1 #
b1 ,
b1 3
b1 4
b100101101100101011110010101111100110011 '
0(
b1000 &
b1000 2
#1665000
1(
#1670000
b10 /
b1111 $
b1111 .
b1111 1
1"
0(
#1675000
b0 #
b0 ,
b0 3
b0 4
b100 /
b1 $
b1 .
b1 1
b10 0
1(
#1680000
05
0(
#1685000
b1000 /
b10 $
b10 .
b10 1
b100 0
1(
#1690000
b10 $
b10 .
b10 1
b1000 /
0"
0(
#1695000
b10000 /
b100 $
b100 .
b100 1
b1000 0
1(
#1700000
0(
#1705000
1!
b11 %
b11 -
b1 #
b1 ,
b1 3
b1 4
b100000 /
b1000 $
b1000 .
b1000 1
b10000 0
1(
#1710000
15
0(
#1715000
b0 %
b0 -
0!
b1111 $
b1111 .
b1111 1
b100000 0
1(
#1720000
1"
05
b1 /
b1111 $
b1111 .
b1111 1
b0 #
b0 ,
b0 3
b0 4
b1001110011011110110111001100101 '
0(
b100 *
b0 &
b0 2
#1725000
b10 /
b1111 $
b1111 .
b1111 1
b1 0
1(
#1730000
b1111 $
b1111 .
b1111 1
b1 /
0"
0(
#1735000
1(
#1740000
15
b1111 $
b1111 .
b1111 1
b10 #
b10 ,
b10 3
b10 4
b100101101100101011110010101111100110100 '
0(
b10000 &
b10000 2
#1745000
1(
#1750000
b10 /
b1111 $
b1111 .
b1111 1
1"
0(
#1755000
1!
b100 %
b100 -
b100000 /
b1 $
b1 .
b1 1
b10 0
1(
#1760000
0(
#1765000
0!
b0 %
b0 -
b1111 $
b1111 .
b1111 1
b100000 0
1(
#1770000
0(
#1775000
1(
#1780000
0(
#1785000
1(
#1790000
0(
#1795000
1(
#1800000
05
b1 /
b1111 $
b1111 .
b1111 1
b0 #
b0 ,
b0 3
b0 4
b1001110011011110110111001100101 '
0(
b101 *
b0 &
b0 2
#1805000
b10 /
b1111 $
b1111 .
b1111 1
b1 0
1(
#1810000
b1111 $
b1111 .
b1111 1
b1 /
0"
0(
#1815000
1(
#1820000
15
b1111 $
b1111 .
b1111 1
b10 #
b10 ,
b10 3
b10 4
b100101101100101011110010101111100110101 '
0(
b100000 &
b100000 2
#1825000
1(
#1830000
b10 /
b1111 $
b1111 .
b1111 1
1"
0(
#1835000
b0 #
b0 ,
b0 3
b0 4
b100 /
b1 $
b1 .
b1 1
b10 0
1(
#1840000
05
0(
#1845000
1!
b101 %
b101 -
b10 #
b10 ,
b10 3
b10 4
b100000 /
b10 $
b10 .
b10 1
b100 0
1(
#1850000
b10 $
b10 .
b10 1
b100000 /
0"
15
0(
#1855000
0!
b0 %
b0 -
b1111 $
b1111 .
b1111 1
b100000 0
1(
#1860000
b1111 $
b1111 .
b1111 1
1"
0(
#1865000
1(
#1870000
0(
#1875000
1(
#1880000
05
b1 /
b1111 $
b1111 .
b1111 1
b0 #
b0 ,
b0 3
b0 4
b1001110011011110110111001100101 '
0(
b110 *
b0 &
b0 2
#1885000
b10 /
b1111 $
b1111 .
b1111 1
b1 0
1(
#1890000
b1111 $
b1111 .
b1111 1
b1 /
0"
0(
#1895000
1(
#1900000
15
b1111 $
b1111 .
b1111 1
b10 #
b10 ,
b10 3
b10 4
b100101101100101011110010101111100110110 '
0(
b1000000 &
b1000000 2
#1905000
1(
#1910000
b10 /
b1111 $
b1111 .
b1111 1
1"
0(
#1915000
b0 #
b0 ,
b0 3
b0 4
b100 /
b1 $
b1 .
b1 1
b10 0
1(
#1920000
05
0(
#1925000
b1000 /
b10 $
b10 .
b10 1
b100 0
1(
#1930000
b10 $
b10 .
b10 1
b1000 /
0"
0(
#1935000
1!
b110 %
b110 -
b10 #
b10 ,
b10 3
b10 4
b100000 /
b100 $
b100 .
b100 1
b1000 0
1(
#1940000
15
0(
#1945000
0!
b0 %
b0 -
b1111 $
b1111 .
b1111 1
b100000 0
1(
#1950000
b1111 $
b1111 .
b1111 1
1"
0(
#1955000
1(
#1960000
05
b1 /
b1111 $
b1111 .
b1111 1
b0 #
b0 ,
b0 3
b0 4
b1001110011011110110111001100101 '
0(
b111 *
b0 &
b0 2
#1965000
b10 /
b1111 $
b1111 .
b1111 1
b1 0
1(
#1970000
b1111 $
b1111 .
b1111 1
b1 /
0"
0(
#1975000
1(
#1980000
15
b1111 $
b1111 .
b1111 1
b10 #
b10 ,
b10 3
b10 4
b100101101100101011110010101111100110111 '
0(
b10000000 &
b10000000 2
#1985000
1(
#1990000
b10 /
b1111 $
b1111 .
b1111 1
1"
0(
#1995000
b0 #
b0 ,
b0 3
b0 4
b100 /
b1 $
b1 .
b1 1
b10 0
1(
#2000000
05
0(
